Exploring Zillow Real Estate Data: Introduction to realEstAnalytics • realEstAnalytics
…
GetDeepSearchResults_dataframe(.df=newtonaddresses,
                               col.address=1 , col.zipcode=2 , col.city=3 , col.state=4,
                               api_key=getOption('ZillowR-zws_id'))
#> # A tibble: 37 x 26
#>    address zipcode city  state   lat  long region_name region_id type 
#>    <chr>   <chr>   <chr> <chr> <dbl> <dbl> <chr>       <chr>     <chr>
#>  1 2137 B~ 67114   Newt~ KS     38.0 -97.4 Newton      19619     city 
#>  2 410 Vi~ 67114   Newt~ KS     38.0 -97.3 Newton      19619     city 
#>  3 2801 G~ 67117   Nort~ KS     38.1 -97.4 North Newt~ 46801     city 
#>  4 105 S ~ 67114   Newt~ KS     38.0 -97.3 Newton      19619     city 
#>  5 839 Me~ 67114   Newt~ KS     38.0 -97.3 Newton      19619     city 
#>  6 1412 W~ 67114   Newt~ KS     38.1 -97.4 Newton      19619     city 
#>  7 919 N ~ 67114   Newt~ KS     38.1 -97.3 Newton      19619     city 
#>  8 2112 B~ 67114   Newt~ KS     38.0 -97.4 Newton      19619     city 
#>  9 3000 A~ 67114   Newt~ KS     38.0 -97.3 Newton      19619     city 
#> 10 612 Qu~ 67114   Newt~ KS     38.0 -97.3 Newton      19619     city 
#> # ... with 27 more rows, and 17 more variables: zestimate <dbl>,
#> #   zest_lastupdated <date>, zest_monthlychange <dbl>,
#> #   zest_percentile <dbl>, zestimate_low <dbl>, zestimate_high <dbl>,
#> #   zpid <chr>, bathrooms <dbl>, bedrooms <dbl>, finishedSqFt <dbl>,
#> #   lastSoldDate <chr>, lastSoldPrice <dbl>, lotSizeSqFt <dbl>,
#> #   taxAssessment <dbl>, taxAssessmentYear <dbl>, totalRooms <dbl>,
#> #   yearBuilt <dbl>
…
